<?xml version="1.0" standalone="no"?>
<!DOCTYPE svg PUBLIC "-//W3C//DTD SVG 20010904//EN"
 "http://www.w3.org/TR/2001/REC-SVG-20010904/DTD/svg10.dtd">
<svg version="1.0" xmlns="http://www.w3.org/2000/svg"
 width="180.000000pt" height="180.000000pt" viewBox="0 0 180.000000 180.000000"
 preserveAspectRatio="xMidYMid meet">
<metadata>
Created by potrace 1.11, written by Peter Selinger 2001-2013
</metadata>
<g transform="translate(0.000000,180.000000) scale(0.100000,-0.100000)"
fill="#000000" stroke="none">
<path d="M862 1485 c-33 -15 -75 -62 -104 -119 -20 -39 -68 -197 -68 -223 0
-10 49 -13 214 -13 l214 0 -13 58 c-52 221 -146 337 -243 297z"/>
<path d="M626 1427 c-56 -29 -100 -62 -152 -114 -41 -41 -74 -78 -74 -83 0 -5
-11 -26 -25 -46 -14 -20 -25 -41 -25 -45 0 -5 58 -9 129 -9 l129 0 8 38 c4 20
7 40 6 43 -3 15 52 167 74 206 13 23 21 44 17 46 -5 3 -43 -14 -87 -36z"/>
<path d="M1114 1398 c42 -90 71 -190 75 -255 1 -10 34 -13 131 -13 72 0 130 2
130 5 0 4 -7 20 -16 38 -51 98 -155 200 -262 255 -44 23 -82 42 -85 42 -3 0 9
-33 27 -72z"/>
<path d="M312 1008 c-10 -46 -8 -208 4 -245 6 -22 10 -23 143 -23 l136 0 0
155 0 155 -137 0 -137 0 -9 -42z"/>
<path d="M679 1048 c-10 -35 -14 -282 -4 -298 8 -13 442 -13 450 1 6 9 9 201
4 267 l-2 32 -224 0 c-122 0 -223 -1 -224 -2z"/>
<path d="M1205 895 l0 -155 137 0 c122 0 137 2 142 18 19 67 22 134 11 212
-12 86 0 80 -153 80 l-137 0 0 -155z"/>
<path d="M350 654 c0 -4 17 -34 37 -68 55 -89 152 -179 247 -227 43 -21 81
-38 83 -36 2 2 -8 24 -21 50 -28 51 -70 180 -81 245 l-7 42 -129 0 c-71 0
-129 -3 -129 -6z"/>
<path d="M695 623 c23 -150 98 -289 172 -319 28 -12 38 -12 67 0 35 15 86 63
86 83 0 6 4 13 8 15 9 3 52 100 57 128 2 10 8 35 14 56 22 79 36 74 -200 74
l-210 0 6 -37z"/>
<path d="M1172 562 c-12 -54 -37 -127 -54 -162 -18 -36 -34 -68 -36 -73 -6
-11 116 39 128 53 3 3 22 16 42 28 41 26 148 140 148 159 0 7 4 13 8 13 7 0
42 63 42 75 0 3 -57 5 -127 5 l-128 0 -23 -98z"/>
</g>
</svg>
